-- Merging decision tree log ---
provider#com.vinzscam.reactnativefileviewer.FileProvider
INJECTED from /Users/admin/Desktop/gradhire/android/app/src/main/AndroidManifest.xml:34:9-43:20
MERGED from [:react-native-file-viewer] /Users/admin/Desktop/gradhire/node_modules/react-native-file-viewer/android/build/intermediates/library_manifest/debug/AndroidManifest.xml:12:9-20:20
MERGED from [:react-native-file-viewer] /Users/admin/Desktop/gradhire/node_modules/react-native-file-viewer/android/build/intermediates/library_manifest/debug/AndroidManifest.xml:12:9-20:20
	android:authorities
		INJECTED from /Users/admin/Desktop/gradhire/android/app/src/main/AndroidManifest.xml
manifest
ADDED from /Users/admin/Desktop/gradhire/android/app/src/main/AndroidManifest.xml:1:1-46:12
INJECTED from /Users/admin/Desktop/gradhire/android/app/src/main/AndroidManifest.xml:1:1-46:12
INJECTED from /Users/admin/Desktop/gradhire/android/app/src/main/AndroidManifest.xml:1:1-46:12
INJECTED from /Users/admin/Desktop/gradhire/android/app/src/main/AndroidManifest.xml:1:1-46:12
MERGED from /Users/admin/Desktop/gradhire/android/app/src/main/AndroidManifest.xml:1:1-46:12
MERGED from [:react-native-file-viewer] /Users/admin/Desktop/gradhire/node_modules/react-native-file-viewer/android/build/intermediates/library_manifest/debug/AndroidManifest.xml:2:1-23:12
MERGED from [:react-native-maps] /Users/admin/Desktop/gradhire/node_modules/react-native-maps/lib/android/build/intermediates/library_manifest/debug/AndroidManifest.xml:2:1-12:12
MERGED from [:react-native-fs] /Users/admin/Desktop/gradhire/node_modules/react-native-fs/android/build/intermediates/library_manifest/debug/AndroidManifest.xml:2:1-13:12
MERGED from [:react-native-image-picker] /Users/admin/Desktop/gradhire/node_modules/react-native-image-picker/android/build/intermediates/library_manifest/debug/AndroidManifest.xml:2:1-23:12
MERGED from [:react-native-gesture-handler] /Users/admin/Desktop/gradhire/node_modules/react-native-gesture-handler/android/build/intermediates/library_manifest/debug/AndroidManifest.xml:2:1-11:12
MERGED from [:react-native-webview-bridge] /Users/admin/Desktop/gradhire/node_modules/react-native-webview-bridge/android/build/intermediates/library_manifest/debug/AndroidManifest.xml:2:1-11:12
MERGED from [:react-native-webview] /Users/admin/Desktop/gradhire/node_modules/react-native-webview/android/build/intermediates/library_manifest/debug/AndroidManifest.xml:2:1-23:12
MERGED from [:react-native-video] /Users/admin/Desktop/gradhire/node_modules/react-native-video/android-exoplayer/build/intermediates/library_manifest/debug/AndroidManifest.xml:2:1-11:12
MERGED from [:react-native-vector-icons] /Users/admin/Desktop/gradhire/node_modules/react-native-vector-icons/android/build/intermediates/library_manifest/debug/AndroidManifest.xml:2:1-11:12
MERGED from [:react-native-image-crop-picker] /Users/admin/Desktop/gradhire/node_modules/react-native-image-crop-picker/android/build/intermediates/library_manifest/debug/AndroidManifest.xml:2:1-28:12
MERGED from [:react-native-camera] /Users/admin/Desktop/gradhire/node_modules/react-native-camera/android/build/intermediates/library_manifest/generalDebug/AndroidManifest.xml:2:1-18:12
MERGED from [:@react-native-community_async-storage] /Users/admin/Desktop/gradhire/node_modules/@react-native-community/async-storage/android/build/intermediates/library_manifest/debug/AndroidManifest.xml:2:1-9:12
MERGED from [com.facebook.react:react-native:0.59.9] /Users/admin/.gradle/caches/transforms-2/files-2.1/97c1b5386fe3fa5320fa37200e02d4ca/AndroidManifest.xml:2:1-13:12
MERGED from [com.github.yalantis:ucrop:2.2.2-native] /Users/admin/.gradle/caches/transforms-2/files-2.1/8e68cd108155939741ba7c332990c1cb/AndroidManifest.xml:2:1-11:12
MERGED from [com.android.support:appcompat-v7:28.0.0] /Users/admin/.gradle/caches/transforms-2/files-2.1/48d9a5555a1e30fd3f44901be24acbf0/AndroidManifest.xml:17:1-22:12
MERGED from [com.google.android.gms:play-services-maps:16.1.0] /Users/admin/.gradle/caches/transforms-2/files-2.1/7030737786a1a2c9dc9cd48dcaa78e39/AndroidManifest.xml:17:1-38:12
MERGED from [com.google.android.gms:play-services-vision:17.0.2] /Users/admin/.gradle/caches/transforms-2/files-2.1/ca3835b7318446cbd1348900e794ba2b/AndroidManifest.xml:2:1-9:12
MERGED from [com.google.android.gms:play-services-vision-common:17.0.2] /Users/admin/.gradle/caches/transforms-2/files-2.1/10ce268f720ba54c5c17a7f0afab1d67/AndroidManifest.xml:2:1-9:12
MERGED from [com.google.android.gms:play-services-clearcut:16.0.0] /Users/admin/.gradle/caches/transforms-2/files-2.1/2af0b1ba5cce85ce1db368312c540e20/AndroidManifest.xml:17:1-24:12
MERGED from [com.google.android.gms:play-services-flags:16.0.1] /Users/admin/.gradle/caches/transforms-2/files-2.1/c7abdbc0c42a699d038096533fa54b17/AndroidManifest.xml:17:1-22:12
MERGED from [com.google.android.gms:play-services-phenotype:16.0.0] /Users/admin/.gradle/caches/transforms-2/files-2.1/d7957748c9f8b6017a58bc67258f9c92/AndroidManifest.xml:17:1-24:12
MERGED from [com.google.android.gms:play-services-base:16.1.0] /Users/admin/.gradle/caches/transforms-2/files-2.1/df7b55b6c75807a09b14cd84eda5f64c/AndroidManifest.xml:17:1-29:12
MERGED from [com.google.maps.android:android-maps-utils:0.5] /Users/admin/.gradle/caches/transforms-2/files-2.1/f1457144cb686673b800b2bf6c2f0236/AndroidManifest.xml:2:1-13:12
MERGED from [com.google.android.exoplayer:exoplayer:2.9.3] /Users/admin/.gradle/caches/transforms-2/files-2.1/3e2ac410c97e8903be06f29dda23d79d/AndroidManifest.xml:17:1-24:12
MERGED from [com.google.android.gms:play-services-tasks:16.0.1] /Users/admin/.gradle/caches/transforms-2/files-2.1/6e368fa7bcc7750dc5db3bcfe26684cf/AndroidManifest.xml:2:1-9:12
MERGED from [com.google.android.gms:play-services-basement:16.2.0] /Users/admin/.gradle/caches/transforms-2/files-2.1/d2204a78f63f3a9ad95938538e8246f0/AndroidManifest.xml:17:1-28:12
MERGED from [com.android.support:support-v4:28.0.0] /Users/admin/.gradle/caches/transforms-2/files-2.1/4456f96970b8755ce6c77dffc975d923/AndroidManifest.xml:17:1-22:12
MERGED from [com.android.support:support-media-compat:28.0.0] /Users/admin/.gradle/caches/transforms-2/files-2.1/756589b77106da807102ae4022383f76/AndroidManifest.xml:17:1-22:12
MERGED from [com.android.support:support-fragment:28.0.0] /Users/admin/.gradle/caches/transforms-2/files-2.1/036d6a979cc6a94b88e6d27451fadf32/AndroidManifest.xml:17:1-22:12
MERGED from [com.android.support:animated-vector-drawable:28.0.0] /Users/admin/.gradle/caches/transforms-2/files-2.1/2e5f8fc2d7675aeb4a9bad3f8f412651/AndroidManifest.xml:17:1-22:12
MERGED from [com.android.support:support-core-ui:28.0.0] /Users/admin/.gradle/caches/transforms-2/files-2.1/3c6b0b221a5a7710bd0510995e751a8a/AndroidManifest.xml:17:1-22:12
MERGED from [com.android.support:support-core-utils:28.0.0] /Users/admin/.gradle/caches/transforms-2/files-2.1/8fb8a91c93b7cdea98fc5518552fc6e8/AndroidManifest.xml:17:1-22:12
MERGED from [com.android.support:support-vector-drawable:28.0.0] /Users/admin/.gradle/caches/transforms-2/files-2.1/ac7344732ba4df86d104d71516f511dd/AndroidManifest.xml:17:1-22:12
MERGED from [com.android.support:loader:28.0.0] /Users/admin/.gradle/caches/transforms-2/files-2.1/825fc541bdf25a7a9e3b0806cf1e275f/AndroidManifest.xml:17:1-22:12
MERGED from [com.android.support:viewpager:28.0.0] /Users/admin/.gradle/caches/transforms-2/files-2.1/5a0f1a03964381f25fdcc89bd39e37f9/AndroidManifest.xml:17:1-22:12
MERGED from [com.android.support:coordinatorlayout:28.0.0] /Users/admin/.gradle/caches/transforms-2/files-2.1/56b353017eb39d0ee9f616040a026cdb/AndroidManifest.xml:17:1-22:12
MERGED from [com.android.support:drawerlayout:28.0.0] /Users/admin/.gradle/caches/transforms-2/files-2.1/23b759191c41d27d2d20aec310093e49/AndroidManifest.xml:17:1-22:12
MERGED from [com.android.support:slidingpanelayout:28.0.0] /Users/admin/.gradle/caches/transforms-2/files-2.1/70ad638f54f7f7d7b57b6df5ba9c75a4/AndroidManifest.xml:17:1-22:12
MERGED from [com.android.support:customview:28.0.0] /Users/admin/.gradle/caches/transforms-2/files-2.1/e9614c6be690ff1ee9b2585dd0253c2e/AndroidManifest.xml:17:1-22:12
MERGED from [com.android.support:swiperefreshlayout:28.0.0] /Users/admin/.gradle/caches/transforms-2/files-2.1/4925958dc51f82757a0d8d80c6351a97/AndroidManifest.xml:17:1-22:12
MERGED from [com.android.support:asynclayoutinflater:28.0.0] /Users/admin/.gradle/caches/transforms-2/files-2.1/35f9b06a74a599d30169dc9f3ff1afcd/AndroidManifest.xml:17:1-22:12
MERGED from [com.android.support:support-compat:28.0.0] /Users/admin/.gradle/caches/transforms-2/files-2.1/2b85ca4c57e6c4cbd2c905ebb8965c52/AndroidManifest.xml:17:1-24:12
MERGED from [com.google.android.exoplayer:extension-okhttp:2.9.3] /Users/admin/.gradle/caches/transforms-2/files-2.1/ce1472a5faebea295df5b975a4113b98/AndroidManifest.xml:17:1-24:12
MERGED from [com.android.support:exifinterface:28.0.0] /Users/admin/.gradle/caches/transforms-2/files-2.1/e7a9cf42e63d3c74da752108659df792/AndroidManifest.xml:17:1-22:12
MERGED from [com.android.support:versionedparcelable:28.0.0] /Users/admin/.gradle/caches/transforms-2/files-2.1/3f9e0a5435e3ff44fbca618b2073cf30/AndroidManifest.xml:17:1-25:12
MERGED from [com.android.support:cursoradapter:28.0.0] /Users/admin/.gradle/caches/transforms-2/files-2.1/d21a2bbc033f1d40bd506e76b78ed51e/AndroidManifest.xml:17:1-22:12
MERGED from [com.google.android.exoplayer:exoplayer-dash:2.9.3] /Users/admin/.gradle/caches/transforms-2/files-2.1/cd29ceb61ecf268cf4e41bf14a076fc4/AndroidManifest.xml:17:1-24:12
MERGED from [com.google.android.exoplayer:exoplayer-hls:2.9.3] /Users/admin/.gradle/caches/transforms-2/files-2.1/415cf4856aab0ca5feb4fbec77fa8776/AndroidManifest.xml:17:1-24:12
MERGED from [com.google.android.exoplayer:exoplayer-smoothstreaming:2.9.3] /Users/admin/.gradle/caches/transforms-2/files-2.1/88a485660aeaccff3c2623d4d1e87251/AndroidManifest.xml:17:1-24:12
MERGED from [com.google.android.exoplayer:exoplayer-ui:2.9.3] /Users/admin/.gradle/caches/transforms-2/files-2.1/6f271368f82795ef7a4cb92d8858e227/AndroidManifest.xml:17:1-24:12
MERGED from [com.google.android.exoplayer:exoplayer-core:2.9.3] /Users/admin/.gradle/caches/transforms-2/files-2.1/09d9e5f4374a801387997090853f11af/AndroidManifest.xml:17:1-26:12
MERGED from [android.arch.lifecycle:runtime:1.1.1] /Users/admin/.gradle/caches/transforms-2/files-2.1/9142e926d9e35b1e1466a0efea9ec384/AndroidManifest.xml:17:1-22:12
MERGED from [com.android.support:documentfile:28.0.0] /Users/admin/.gradle/caches/transforms-2/files-2.1/4cfed2c527663519ddb142dac96cd207/AndroidManifest.xml:17:1-22:12
MERGED from [com.android.support:localbroadcastmanager:28.0.0] /Users/admin/.gradle/caches/transforms-2/files-2.1/5be4c211571bcebb7c73dd1eb718e74a/AndroidManifest.xml:17:1-22:12
MERGED from [com.android.support:print:28.0.0] /Users/admin/.gradle/caches/transforms-2/files-2.1/b6a17f789a526b785873368dbbaad255/AndroidManifest.xml:17:1-22:12
MERGED from [android.arch.lifecycle:viewmodel:1.1.1] /Users/admin/.gradle/caches/transforms-2/files-2.1/d162780810cc764d5c3d92f5d8f9b59e/AndroidManifest.xml:17:1-22:12
MERGED from [android.arch.lifecycle:livedata:1.1.1] /Users/admin/.gradle/caches/transforms-2/files-2.1/52e89f95d52bb559b112ff02589a7cf9/AndroidManifest.xml:17:1-22:12
MERGED from [android.arch.lifecycle:livedata-core:1.1.1] /Users/admin/.gradle/caches/transforms-2/files-2.1/a756533f71998c8eae9a709e8179d423/AndroidManifest.xml:17:1-22:12
MERGED from [android.arch.core:runtime:1.1.1] /Users/admin/.gradle/caches/transforms-2/files-2.1/571d113582b4bf3bb8e375c0751645b4/AndroidManifest.xml:17:1-22:12
MERGED from [com.android.support:interpolator:28.0.0] /Users/admin/.gradle/caches/transforms-2/files-2.1/133974195d46d00b729e5dba07697947/AndroidManifest.xml:17:1-22:12
MERGED from [com.facebook.fresco:imagepipeline-okhttp3:1.10.0] /Users/admin/.gradle/caches/transforms-2/files-2.1/1f8420f4fecc965f6b09eff4a817b605/AndroidManifest.xml:2:1-9:12
MERGED from [com.facebook.fresco:fresco:1.10.0] /Users/admin/.gradle/caches/transforms-2/files-2.1/c501b34b397b0d37a39f2048ce00db95/AndroidManifest.xml:2:1-9:12
MERGED from [com.facebook.fresco:drawee:1.10.0] /Users/admin/.gradle/caches/transforms-2/files-2.1/5c37a7adb6775202ed1692d7d3b26084/AndroidManifest.xml:2:1-9:12
MERGED from [com.facebook.fresco:imagepipeline:1.10.0] /Users/admin/.gradle/caches/transforms-2/files-2.1/2c7835722348d275dd976c2dcebdb9a1/AndroidManifest.xml:2:1-9:12
MERGED from [com.facebook.fresco:imagepipeline-base:1.10.0] /Users/admin/.gradle/caches/transforms-2/files-2.1/0bd4a023b35bc796c43250eaa577f11e/AndroidManifest.xml:2:1-9:12
MERGED from [com.facebook.soloader:soloader:0.6.0] /Users/admin/.gradle/caches/transforms-2/files-2.1/7f5fc5cf69bb1b47451ebcc33b23f62e/AndroidManifest.xml:2:1-13:12
MERGED from [com.facebook.fresco:fbcore:1.10.0] /Users/admin/.gradle/caches/transforms-2/files-2.1/15bfa767f5a1a6c9e7c412033fd39eb2/AndroidManifest.xml:2:1-9:12
INJECTED from /Users/admin/Desktop/gradhire/android/app/src/debug/AndroidManifest.xml:2:1-8:12
INJECTED from /Users/admin/Desktop/gradhire/android/app/src/debug/AndroidManifest.xml:2:1-8:12
INJECTED from /Users/admin/Desktop/gradhire/android/app/src/debug/AndroidManifest.xml:2:1-8:12
	package
		ADDED from /Users/admin/Desktop/gradhire/android/app/src/main/AndroidManifest.xml:2:3-25
		INJECTED from /Users/admin/Desktop/gradhire/android/app/src/main/AndroidManifest.xml
		ADDED from /Users/admin/Desktop/gradhire/android/app/src/main/AndroidManifest.xml:2:3-25
		INJECTED from /Users/admin/Desktop/gradhire/android/app/src/debug/AndroidManifest.xml
	android:versionName
		INJECTED from /Users/admin/Desktop/gradhire/android/app/src/main/AndroidManifest.xml
		ADDED from /Users/admin/Desktop/gradhire/android/app/src/main/AndroidManifest.xml:1:1-46:12
		INJECTED from /Users/admin/Desktop/gradhire/android/app/src/debug/AndroidManifest.xml
	xmlns:tools
		ADDED from /Users/admin/Desktop/gradhire/android/app/src/debug/AndroidManifest.xml:3:5-51
	android:versionCode
		INJECTED from /Users/admin/Desktop/gradhire/android/app/src/main/AndroidManifest.xml
		ADDED from /Users/admin/Desktop/gradhire/android/app/src/main/AndroidManifest.xml:1:1-46:12
		INJECTED from /Users/admin/Desktop/gradhire/android/app/src/debug/AndroidManifest.xml
	xmlns:android
		ADDED from /Users/admin/Desktop/gradhire/android/app/src/main/AndroidManifest.xml:1:11-69
uses-permission#android.permission.INTERNET
ADDED from /Users/admin/Desktop/gradhire/android/app/src/main/AndroidManifest.xml:4:5-67
MERGED from [:react-native-maps] /Users/admin/Desktop/gradhire/node_modules/react-native-maps/lib/android/build/intermediates/library_manifest/debug/AndroidManifest.xml:9:5-67
MERGED from [:react-native-maps] /Users/admin/Desktop/gradhire/node_modules/react-native-maps/lib/android/build/intermediates/library_manifest/debug/AndroidManifest.xml:9:5-67
MERGED from [com.google.android.gms:play-services-maps:16.1.0] /Users/admin/.gradle/caches/transforms-2/files-2.1/7030737786a1a2c9dc9cd48dcaa78e39/AndroidManifest.xml:24:5-67
MERGED from [com.google.android.gms:play-services-maps:16.1.0] /Users/admin/.gradle/caches/transforms-2/files-2.1/7030737786a1a2c9dc9cd48dcaa78e39/AndroidManifest.xml:24:5-67
	android:name
		ADDED from /Users/admin/Desktop/gradhire/android/app/src/main/AndroidManifest.xml:4:22-64
uses-permission#android.permission.SYSTEM_ALERT_WINDOW
ADDED from /Users/admin/Desktop/gradhire/android/app/src/main/AndroidManifest.xml:5:5-77
MERGED from /Users/admin/Desktop/gradhire/android/app/src/main/AndroidManifest.xml:5:5-77
MERGED from /Users/admin/Desktop/gradhire/android/app/src/main/AndroidManifest.xml:5:5-77
	android:name
		ADDED from /Users/admin/Desktop/gradhire/android/app/src/main/AndroidManifest.xml:5:22-75
uses-permission#android.permission.CAMERA
ADDED from /Users/admin/Desktop/gradhire/android/app/src/main/AndroidManifest.xml:6:5-65
MERGED from [:react-native-camera] /Users/admin/Desktop/gradhire/node_modules/react-native-camera/android/build/intermediates/library_manifest/generalDebug/AndroidManifest.xml:9:5-65
MERGED from [:react-native-camera] /Users/admin/Desktop/gradhire/node_modules/react-native-camera/android/build/intermediates/library_manifest/generalDebug/AndroidManifest.xml:9:5-65
	android:name
		ADDED from /Users/admin/Desktop/gradhire/android/app/src/main/AndroidManifest.xml:6:22-62
uses-permission#android.permission.RECORD_AUDIO
ADDED from /Users/admin/Desktop/gradhire/android/app/src/main/AndroidManifest.xml:7:5-70
	android:name
		ADDED from /Users/admin/Desktop/gradhire/android/app/src/main/AndroidManifest.xml:7:22-68
uses-permission#android.permission.READ_EXTERNAL_STORAGE
ADDED from /Users/admin/Desktop/gradhire/android/app/src/main/AndroidManifest.xml:8:5-80
	android:name
		ADDED from /Users/admin/Desktop/gradhire/android/app/src/main/AndroidManifest.xml:8:22-77
uses-permission#android.permission.WRITE_EXTERNAL_STORAGE
ADDED from /Users/admin/Desktop/gradhire/android/app/src/main/AndroidManifest.xml:9:5-81
MERGED from [:react-native-fs] /Users/admin/Desktop/gradhire/node_modules/react-native-fs/android/build/intermediates/library_manifest/debug/AndroidManifest.xml:11:5-81
MERGED from [:react-native-fs] /Users/admin/Desktop/gradhire/node_modules/react-native-fs/android/build/intermediates/library_manifest/debug/AndroidManifest.xml:11:5-81
MERGED from [:react-native-image-crop-picker] /Users/admin/Desktop/gradhire/node_modules/react-native-image-crop-picker/android/build/intermediates/library_manifest/debug/AndroidManifest.xml:10:5-81
MERGED from [:react-native-image-crop-picker] /Users/admin/Desktop/gradhire/node_modules/react-native-image-crop-picker/android/build/intermediates/library_manifest/debug/AndroidManifest.xml:10:5-81
	android:name
		ADDED from /Users/admin/Desktop/gradhire/android/app/src/main/AndroidManifest.xml:9:22-78
uses-feature#android.hardware.camera
ADDED from /Users/admin/Desktop/gradhire/android/app/src/main/AndroidManifest.xml:10:5-85
MERGED from [:react-native-camera] /Users/admin/Desktop/gradhire/node_modules/react-native-camera/android/build/intermediates/library_manifest/generalDebug/AndroidManifest.xml:11:5-13:36
MERGED from [:react-native-camera] /Users/admin/Desktop/gradhire/node_modules/react-native-camera/android/build/intermediates/library_manifest/generalDebug/AndroidManifest.xml:11:5-13:36
	android:required
		ADDED from /Users/admin/Desktop/gradhire/android/app/src/main/AndroidManifest.xml:10:58-82
	android:name
		ADDED from /Users/admin/Desktop/gradhire/android/app/src/main/AndroidManifest.xml:10:19-57
uses-feature#android.hardware.camera.front
ADDED from /Users/admin/Desktop/gradhire/android/app/src/main/AndroidManifest.xml:11:5-91
	android:required
		ADDED from /Users/admin/Desktop/gradhire/android/app/src/main/AndroidManifest.xml:11:64-88
	android:name
		ADDED from /Users/admin/Desktop/gradhire/android/app/src/main/AndroidManifest.xml:11:19-63
application
ADDED from /Users/admin/Desktop/gradhire/android/app/src/main/AndroidManifest.xml:13:5-44:19
MERGED from /Users/admin/Desktop/gradhire/android/app/src/main/AndroidManifest.xml:13:5-44:19
MERGED from /Users/admin/Desktop/gradhire/android/app/src/main/AndroidManifest.xml:13:5-44:19
MERGED from [:react-native-file-viewer] /Users/admin/Desktop/gradhire/node_modules/react-native-file-viewer/android/build/intermediates/library_manifest/debug/AndroidManifest.xml:11:5-21:19
MERGED from [:react-native-file-viewer] /Users/admin/Desktop/gradhire/node_modules/react-native-file-viewer/android/build/intermediates/library_manifest/debug/AndroidManifest.xml:11:5-21:19
MERGED from [:react-native-image-picker] /Users/admin/Desktop/gradhire/node_modules/react-native-image-picker/android/build/intermediates/library_manifest/debug/AndroidManifest.xml:11:5-21:19
MERGED from [:react-native-image-picker] /Users/admin/Desktop/gradhire/node_modules/react-native-image-picker/android/build/intermediates/library_manifest/debug/AndroidManifest.xml:11:5-21:19
MERGED from [:react-native-webview] /Users/admin/Desktop/gradhire/node_modules/react-native-webview/android/build/intermediates/library_manifest/debug/AndroidManifest.xml:11:5-21:19
MERGED from [:react-native-webview] /Users/admin/Desktop/gradhire/node_modules/react-native-webview/android/build/intermediates/library_manifest/debug/AndroidManifest.xml:11:5-21:19
MERGED from [:react-native-image-crop-picker] /Users/admin/Desktop/gradhire/node_modules/react-native-image-crop-picker/android/build/intermediates/library_manifest/debug/AndroidManifest.xml:12:5-26:19
MERGED from [:react-native-image-crop-picker] /Users/admin/Desktop/gradhire/node_modules/react-native-image-crop-picker/android/build/intermediates/library_manifest/debug/AndroidManifest.xml:12:5-26:19
MERGED from [com.facebook.react:react-native:0.59.9] /Users/admin/.gradle/caches/transforms-2/files-2.1/97c1b5386fe3fa5320fa37200e02d4ca/AndroidManifest.xml:11:5-20
MERGED from [com.facebook.react:react-native:0.59.9] /Users/admin/.gradle/caches/transforms-2/files-2.1/97c1b5386fe3fa5320fa37200e02d4ca/AndroidManifest.xml:11:5-20
MERGED from [com.google.android.gms:play-services-maps:16.1.0] /Users/admin/.gradle/caches/transforms-2/files-2.1/7030737786a1a2c9dc9cd48dcaa78e39/AndroidManifest.xml:30:5-36:19
MERGED from [com.google.android.gms:play-services-maps:16.1.0] /Users/admin/.gradle/caches/transforms-2/files-2.1/7030737786a1a2c9dc9cd48dcaa78e39/AndroidManifest.xml:30:5-36:19
MERGED from [com.google.android.gms:play-services-vision:17.0.2] /Users/admin/.gradle/caches/transforms-2/files-2.1/ca3835b7318446cbd1348900e794ba2b/AndroidManifest.xml:7:5-20
MERGED from [com.google.android.gms:play-services-vision:17.0.2] /Users/admin/.gradle/caches/transforms-2/files-2.1/ca3835b7318446cbd1348900e794ba2b/AndroidManifest.xml:7:5-20
MERGED from [com.google.android.gms:play-services-vision-common:17.0.2] /Users/admin/.gradle/caches/transforms-2/files-2.1/10ce268f720ba54c5c17a7f0afab1d67/AndroidManifest.xml:7:5-20
MERGED from [com.google.android.gms:play-services-vision-common:17.0.2] /Users/admin/.gradle/caches/transforms-2/files-2.1/10ce268f720ba54c5c17a7f0afab1d67/AndroidManifest.xml:7:5-20
MERGED from [com.google.android.gms:play-services-clearcut:16.0.0] /Users/admin/.gradle/caches/transforms-2/files-2.1/2af0b1ba5cce85ce1db368312c540e20/AndroidManifest.xml:22:5-20
MERGED from [com.google.android.gms:play-services-clearcut:16.0.0] /Users/admin/.gradle/caches/transforms-2/files-2.1/2af0b1ba5cce85ce1db368312c540e20/AndroidManifest.xml:22:5-20
MERGED from [com.google.android.gms:play-services-phenotype:16.0.0] /Users/admin/.gradle/caches/transforms-2/files-2.1/d7957748c9f8b6017a58bc67258f9c92/AndroidManifest.xml:22:5-20
MERGED from [com.google.android.gms:play-services-phenotype:16.0.0] /Users/admin/.gradle/caches/transforms-2/files-2.1/d7957748c9f8b6017a58bc67258f9c92/AndroidManifest.xml:22:5-20
MERGED from [com.google.android.gms:play-services-base:16.1.0] /Users/admin/.gradle/caches/transforms-2/files-2.1/df7b55b6c75807a09b14cd84eda5f64c/AndroidManifest.xml:22:5-27:19
MERGED from [com.google.android.gms:play-services-base:16.1.0] /Users/admin/.gradle/caches/transforms-2/files-2.1/df7b55b6c75807a09b14cd84eda5f64c/AndroidManifest.xml:22:5-27:19
MERGED from [com.google.maps.android:android-maps-utils:0.5] /Users/admin/.gradle/caches/transforms-2/files-2.1/f1457144cb686673b800b2bf6c2f0236/AndroidManifest.xml:7:5-11:19
MERGED from [com.google.maps.android:android-maps-utils:0.5] /Users/admin/.gradle/caches/transforms-2/files-2.1/f1457144cb686673b800b2bf6c2f0236/AndroidManifest.xml:7:5-11:19
MERGED from [com.google.android.gms:play-services-tasks:16.0.1] /Users/admin/.gradle/caches/transforms-2/files-2.1/6e368fa7bcc7750dc5db3bcfe26684cf/AndroidManifest.xml:7:5-20
MERGED from [com.google.android.gms:play-services-tasks:16.0.1] /Users/admin/.gradle/caches/transforms-2/files-2.1/6e368fa7bcc7750dc5db3bcfe26684cf/AndroidManifest.xml:7:5-20
MERGED from [com.google.android.gms:play-services-basement:16.2.0] /Users/admin/.gradle/caches/transforms-2/files-2.1/d2204a78f63f3a9ad95938538e8246f0/AndroidManifest.xml:22:5-26:19
MERGED from [com.google.android.gms:play-services-basement:16.2.0] /Users/admin/.gradle/caches/transforms-2/files-2.1/d2204a78f63f3a9ad95938538e8246f0/AndroidManifest.xml:22:5-26:19
MERGED from [com.android.support:support-compat:28.0.0] /Users/admin/.gradle/caches/transforms-2/files-2.1/2b85ca4c57e6c4cbd2c905ebb8965c52/AndroidManifest.xml:22:5-94
MERGED from [com.android.support:support-compat:28.0.0] /Users/admin/.gradle/caches/transforms-2/files-2.1/2b85ca4c57e6c4cbd2c905ebb8965c52/AndroidManifest.xml:22:5-94
MERGED from [com.android.support:versionedparcelable:28.0.0] /Users/admin/.gradle/caches/transforms-2/files-2.1/3f9e0a5435e3ff44fbca618b2073cf30/AndroidManifest.xml:22:5-23:19
MERGED from [com.android.support:versionedparcelable:28.0.0] /Users/admin/.gradle/caches/transforms-2/files-2.1/3f9e0a5435e3ff44fbca618b2073cf30/AndroidManifest.xml:22:5-23:19
MERGED from [com.facebook.soloader:soloader:0.6.0] /Users/admin/.gradle/caches/transforms-2/files-2.1/7f5fc5cf69bb1b47451ebcc33b23f62e/AndroidManifest.xml:11:5-20
MERGED from [com.facebook.soloader:soloader:0.6.0] /Users/admin/.gradle/caches/transforms-2/files-2.1/7f5fc5cf69bb1b47451ebcc33b23f62e/AndroidManifest.xml:11:5-20
	android:appComponentFactory
		ADDED from [com.android.support:support-compat:28.0.0] /Users/admin/.gradle/caches/transforms-2/files-2.1/2b85ca4c57e6c4cbd2c905ebb8965c52/AndroidManifest.xml:22:18-91
	android:label
		ADDED from /Users/admin/Desktop/gradhire/android/app/src/main/AndroidManifest.xml:15:7-39
		ADDED from /Users/admin/Desktop/gradhire/android/app/src/main/AndroidManifest.xml:15:7-39
	tools:ignore
		ADDED from /Users/admin/Desktop/gradhire/android/app/src/debug/AndroidManifest.xml:7:75-114
	tools:targetApi
		ADDED from /Users/admin/Desktop/gradhire/android/app/src/debug/AndroidManifest.xml:7:54-74
	android:icon
		ADDED from /Users/admin/Desktop/gradhire/android/app/src/main/AndroidManifest.xml:16:7-41
		ADDED from /Users/admin/Desktop/gradhire/android/app/src/main/AndroidManifest.xml:16:7-41
	android:allowBackup
		ADDED from /Users/admin/Desktop/gradhire/android/app/src/main/AndroidManifest.xml:17:7-34
		ADDED from /Users/admin/Desktop/gradhire/android/app/src/main/AndroidManifest.xml:17:7-34
	android:theme
		ADDED from /Users/admin/Desktop/gradhire/android/app/src/main/AndroidManifest.xml:18:7-38
		ADDED from /Users/admin/Desktop/gradhire/android/app/src/main/AndroidManifest.xml:18:7-38
	android:usesCleartextTraffic
		ADDED from /Users/admin/Desktop/gradhire/android/app/src/debug/AndroidManifest.xml:7:18-53
	android:name
		ADDED from /Users/admin/Desktop/gradhire/android/app/src/main/AndroidManifest.xml:14:7-38
		ADDED from /Users/admin/Desktop/gradhire/android/app/src/main/AndroidManifest.xml:14:7-38
activity#com.gradhire.MainActivity
ADDED from /Users/admin/Desktop/gradhire/android/app/src/main/AndroidManifest.xml:19:7-29:18
	android:screenOrientation
		ADDED from /Users/admin/Desktop/gradhire/android/app/src/main/AndroidManifest.xml:23:9-45
	android:label
		ADDED from /Users/admin/Desktop/gradhire/android/app/src/main/AndroidManifest.xml:21:9-41
	android:windowSoftInputMode
		ADDED from /Users/admin/Desktop/gradhire/android/app/src/main/AndroidManifest.xml:24:9-51
	android:configChanges
		ADDED from /Users/admin/Desktop/gradhire/android/app/src/main/AndroidManifest.xml:22:9-79
	android:name
		ADDED from /Users/admin/Desktop/gradhire/android/app/src/main/AndroidManifest.xml:20:9-37
intent-filter#action:name:android.intent.action.MAIN+category:name:android.intent.category.LAUNCHER
ADDED from /Users/admin/Desktop/gradhire/android/app/src/main/AndroidManifest.xml:25:9-28:25
action#android.intent.action.MAIN
ADDED from /Users/admin/Desktop/gradhire/android/app/src/main/AndroidManifest.xml:26:13-65
	android:name
		ADDED from /Users/admin/Desktop/gradhire/android/app/src/main/AndroidManifest.xml:26:21-62
category#android.intent.category.LAUNCHER
ADDED from /Users/admin/Desktop/gradhire/android/app/src/main/AndroidManifest.xml:27:13-73
	android:name
		ADDED from /Users/admin/Desktop/gradhire/android/app/src/main/AndroidManifest.xml:27:23-70
activity#com.facebook.react.devsupport.DevSettingsActivity
ADDED from /Users/admin/Desktop/gradhire/android/app/src/main/AndroidManifest.xml:30:7-84
	android:name
		ADDED from /Users/admin/Desktop/gradhire/android/app/src/main/AndroidManifest.xml:30:17-81
meta-data#com.google.android.geo.API_KEY
ADDED from /Users/admin/Desktop/gradhire/android/app/src/main/AndroidManifest.xml:31:7-33:66
	android:value
		ADDED from /Users/admin/Desktop/gradhire/android/app/src/main/AndroidManifest.xml:33:9-64
	android:name
		ADDED from /Users/admin/Desktop/gradhire/android/app/src/main/AndroidManifest.xml:32:9-54
uses-sdk
INJECTED from /Users/admin/Desktop/gradhire/android/app/src/main/AndroidManifest.xml reason: use-sdk injection requested
INJECTED from /Users/admin/Desktop/gradhire/android/app/src/main/AndroidManifest.xml
INJECTED from /Users/admin/Desktop/gradhire/android/app/src/main/AndroidManifest.xml
MERGED from [:react-native-file-viewer] /Users/admin/Desktop/gradhire/node_modules/react-native-file-viewer/android/build/intermediates/library_manifest/debug/AndroidManifest.xml:7:5-9:41
MERGED from [:react-native-file-viewer] /Users/admin/Desktop/gradhire/node_modules/react-native-file-viewer/android/build/intermediates/library_manifest/debug/AndroidManifest.xml:7:5-9:41
MERGED from [:react-native-maps] /Users/admin/Desktop/gradhire/node_modules/react-native-maps/lib/android/build/intermediates/library_manifest/debug/AndroidManifest.xml:5:5-7:41
MERGED from [:react-native-maps] /Users/admin/Desktop/gradhire/node_modules/react-native-maps/lib/android/build/intermediates/library_manifest/debug/AndroidManifest.xml:5:5-7:41
MERGED from [:react-native-fs] /Users/admin/Desktop/gradhire/node_modules/react-native-fs/android/build/intermediates/library_manifest/debug/AndroidManifest.xml:7:5-9:41
MERGED from [:react-native-fs] /Users/admin/Desktop/gradhire/node_modules/react-native-fs/android/build/intermediates/library_manifest/debug/AndroidManifest.xml:7:5-9:41
MERGED from [:react-native-image-picker] /Users/admin/Desktop/gradhire/node_modules/react-native-image-picker/android/build/intermediates/library_manifest/debug/AndroidManifest.xml:7:5-9:41
MERGED from [:react-native-image-picker] /Users/admin/Desktop/gradhire/node_modules/react-native-image-picker/android/build/intermediates/library_manifest/debug/AndroidManifest.xml:7:5-9:41
MERGED from [:react-native-gesture-handler] /Users/admin/Desktop/gradhire/node_modules/react-native-gesture-handler/android/build/intermediates/library_manifest/debug/AndroidManifest.xml:7:5-9:41
MERGED from [:react-native-gesture-handler] /Users/admin/Desktop/gradhire/node_modules/react-native-gesture-handler/android/build/intermediates/library_manifest/debug/AndroidManifest.xml:7:5-9:41
MERGED from [:react-native-webview-bridge] /Users/admin/Desktop/gradhire/node_modules/react-native-webview-bridge/android/build/intermediates/library_manifest/debug/AndroidManifest.xml:7:5-9:41
MERGED from [:react-native-webview-bridge] /Users/admin/Desktop/gradhire/node_modules/react-native-webview-bridge/android/build/intermediates/library_manifest/debug/AndroidManifest.xml:7:5-9:41
MERGED from [:react-native-webview] /Users/admin/Desktop/gradhire/node_modules/react-native-webview/android/build/intermediates/library_manifest/debug/AndroidManifest.xml:7:5-9:41
MERGED from [:react-native-webview] /Users/admin/Desktop/gradhire/node_modules/react-native-webview/android/build/intermediates/library_manifest/debug/AndroidManifest.xml:7:5-9:41
MERGED from [:react-native-video] /Users/admin/Desktop/gradhire/node_modules/react-native-video/android-exoplayer/build/intermediates/library_manifest/debug/AndroidManifest.xml:7:5-9:41
MERGED from [:react-native-video] /Users/admin/Desktop/gradhire/node_modules/react-native-video/android-exoplayer/build/intermediates/library_manifest/debug/AndroidManifest.xml:7:5-9:41
MERGED from [:react-native-vector-icons] /Users/admin/Desktop/gradhire/node_modules/react-native-vector-icons/android/build/intermediates/library_manifest/debug/AndroidManifest.xml:7:5-9:41
MERGED from [:react-native-vector-icons] /Users/admin/Desktop/gradhire/node_modules/react-native-vector-icons/android/build/intermediates/library_manifest/debug/AndroidManifest.xml:7:5-9:41
MERGED from [:react-native-image-crop-picker] /Users/admin/Desktop/gradhire/node_modules/react-native-image-crop-picker/android/build/intermediates/library_manifest/debug/AndroidManifest.xml:6:5-8:41
MERGED from [:react-native-image-crop-picker] /Users/admin/Desktop/gradhire/node_modules/react-native-image-crop-picker/android/build/intermediates/library_manifest/debug/AndroidManifest.xml:6:5-8:41
MERGED from [:react-native-camera] /Users/admin/Desktop/gradhire/node_modules/react-native-camera/android/build/intermediates/library_manifest/generalDebug/AndroidManifest.xml:5:5-7:41
MERGED from [:react-native-camera] /Users/admin/Desktop/gradhire/node_modules/react-native-camera/android/build/intermediates/library_manifest/generalDebug/AndroidManifest.xml:5:5-7:41
MERGED from [:@react-native-community_async-storage] /Users/admin/Desktop/gradhire/node_modules/@react-native-community/async-storage/android/build/intermediates/library_manifest/debug/AndroidManifest.xml:5:5-7:41
MERGED from [:@react-native-community_async-storage] /Users/admin/Desktop/gradhire/node_modules/@react-native-community/async-storage/android/build/intermediates/library_manifest/debug/AndroidManifest.xml:5:5-7:41
MERGED from [com.facebook.react:react-native:0.59.9] /Users/admin/.gradle/caches/transforms-2/files-2.1/97c1b5386fe3fa5320fa37200e02d4ca/AndroidManifest.xml:7:5-9:41
MERGED from [com.facebook.react:react-native:0.59.9] /Users/admin/.gradle/caches/transforms-2/files-2.1/97c1b5386fe3fa5320fa37200e02d4ca/AndroidManifest.xml:7:5-9:41
MERGED from [com.github.yalantis:ucrop:2.2.2-native] /Users/admin/.gradle/caches/transforms-2/files-2.1/8e68cd108155939741ba7c332990c1cb/AndroidManifest.xml:7:5-9:41
MERGED from [com.github.yalantis:ucrop:2.2.2-native] /Users/admin/.gradle/caches/transforms-2/files-2.1/8e68cd108155939741ba7c332990c1cb/AndroidManifest.xml:7:5-9:41
MERGED from [com.android.support:appcompat-v7:28.0.0] /Users/admin/.gradle/caches/transforms-2/files-2.1/48d9a5555a1e30fd3f44901be24acbf0/AndroidManifest.xml:20:5-44
MERGED from [com.android.support:appcompat-v7:28.0.0] /Users/admin/.gradle/caches/transforms-2/files-2.1/48d9a5555a1e30fd3f44901be24acbf0/AndroidManifest.xml:20:5-44
MERGED from [com.google.android.gms:play-services-maps:16.1.0] /Users/admin/.gradle/caches/transforms-2/files-2.1/7030737786a1a2c9dc9cd48dcaa78e39/AndroidManifest.xml:20:5-44
MERGED from [com.google.android.gms:play-services-maps:16.1.0] /Users/admin/.gradle/caches/transforms-2/files-2.1/7030737786a1a2c9dc9cd48dcaa78e39/AndroidManifest.xml:20:5-44
MERGED from [com.google.android.gms:play-services-vision:17.0.2] /Users/admin/.gradle/caches/transforms-2/files-2.1/ca3835b7318446cbd1348900e794ba2b/AndroidManifest.xml:5:5-44
MERGED from [com.google.android.gms:play-services-vision:17.0.2] /Users/admin/.gradle/caches/transforms-2/files-2.1/ca3835b7318446cbd1348900e794ba2b/AndroidManifest.xml:5:5-44
MERGED from [com.google.android.gms:play-services-vision-common:17.0.2] /Users/admin/.gradle/caches/transforms-2/files-2.1/10ce268f720ba54c5c17a7f0afab1d67/AndroidManifest.xml:5:5-44
MERGED from [com.google.android.gms:play-services-vision-common:17.0.2] /Users/admin/.gradle/caches/transforms-2/files-2.1/10ce268f720ba54c5c17a7f0afab1d67/AndroidManifest.xml:5:5-44
MERGED from [com.google.android.gms:play-services-clearcut:16.0.0] /Users/admin/.gradle/caches/transforms-2/files-2.1/2af0b1ba5cce85ce1db368312c540e20/AndroidManifest.xml:20:5-44
MERGED from [com.google.android.gms:play-services-clearcut:16.0.0] /Users/admin/.gradle/caches/transforms-2/files-2.1/2af0b1ba5cce85ce1db368312c540e20/AndroidManifest.xml:20:5-44
MERGED from [com.google.android.gms:play-services-flags:16.0.1] /Users/admin/.gradle/caches/transforms-2/files-2.1/c7abdbc0c42a699d038096533fa54b17/AndroidManifest.xml:20:5-44
MERGED from [com.google.android.gms:play-services-flags:16.0.1] /Users/admin/.gradle/caches/transforms-2/files-2.1/c7abdbc0c42a699d038096533fa54b17/AndroidManifest.xml:20:5-44
MERGED from [com.google.android.gms:play-services-phenotype:16.0.0] /Users/admin/.gradle/caches/transforms-2/files-2.1/d7957748c9f8b6017a58bc67258f9c92/AndroidManifest.xml:20:5-44
MERGED from [com.google.android.gms:play-services-phenotype:16.0.0] /Users/admin/.gradle/caches/transforms-2/files-2.1/d7957748c9f8b6017a58bc67258f9c92/AndroidManifest.xml:20:5-44
MERGED from [com.google.android.gms:play-services-base:16.1.0] /Users/admin/.gradle/caches/transforms-2/files-2.1/df7b55b6c75807a09b14cd84eda5f64c/AndroidManifest.xml:20:5-44
MERGED from [com.google.android.gms:play-services-base:16.1.0] /Users/admin/.gradle/caches/transforms-2/files-2.1/df7b55b6c75807a09b14cd84eda5f64c/AndroidManifest.xml:20:5-44
MERGED from [com.google.maps.android:android-maps-utils:0.5] /Users/admin/.gradle/caches/transforms-2/files-2.1/f1457144cb686673b800b2bf6c2f0236/AndroidManifest.xml:5:5-43
MERGED from [com.google.maps.android:android-maps-utils:0.5] /Users/admin/.gradle/caches/transforms-2/files-2.1/f1457144cb686673b800b2bf6c2f0236/AndroidManifest.xml:5:5-43
MERGED from [com.google.android.exoplayer:exoplayer:2.9.3] /Users/admin/.gradle/caches/transforms-2/files-2.1/3e2ac410c97e8903be06f29dda23d79d/AndroidManifest.xml:20:5-22:41
MERGED from [com.google.android.exoplayer:exoplayer:2.9.3] /Users/admin/.gradle/caches/transforms-2/files-2.1/3e2ac410c97e8903be06f29dda23d79d/AndroidManifest.xml:20:5-22:41
MERGED from [com.google.android.gms:play-services-tasks:16.0.1] /Users/admin/.gradle/caches/transforms-2/files-2.1/6e368fa7bcc7750dc5db3bcfe26684cf/AndroidManifest.xml:5:5-44
MERGED from [com.google.android.gms:play-services-tasks:16.0.1] /Users/admin/.gradle/caches/transforms-2/files-2.1/6e368fa7bcc7750dc5db3bcfe26684cf/AndroidManifest.xml:5:5-44
MERGED from [com.google.android.gms:play-services-basement:16.2.0] /Users/admin/.gradle/caches/transforms-2/files-2.1/d2204a78f63f3a9ad95938538e8246f0/AndroidManifest.xml:20:5-44
MERGED from [com.google.android.gms:play-services-basement:16.2.0] /Users/admin/.gradle/caches/transforms-2/files-2.1/d2204a78f63f3a9ad95938538e8246f0/AndroidManifest.xml:20:5-44
MERGED from [com.android.support:support-v4:28.0.0] /Users/admin/.gradle/caches/transforms-2/files-2.1/4456f96970b8755ce6c77dffc975d923/AndroidManifest.xml:20:5-44
MERGED from [com.android.support:support-v4:28.0.0] /Users/admin/.gradle/caches/transforms-2/files-2.1/4456f96970b8755ce6c77dffc975d923/AndroidManifest.xml:20:5-44
MERGED from [com.android.support:support-media-compat:28.0.0] /Users/admin/.gradle/caches/transforms-2/files-2.1/756589b77106da807102ae4022383f76/AndroidManifest.xml:20:5-44
MERGED from [com.android.support:support-media-compat:28.0.0] /Users/admin/.gradle/caches/transforms-2/files-2.1/756589b77106da807102ae4022383f76/AndroidManifest.xml:20:5-44
MERGED from [com.android.support:support-fragment:28.0.0] /Users/admin/.gradle/caches/transforms-2/files-2.1/036d6a979cc6a94b88e6d27451fadf32/AndroidManifest.xml:20:5-44
MERGED from [com.android.support:support-fragment:28.0.0] /Users/admin/.gradle/caches/transforms-2/files-2.1/036d6a979cc6a94b88e6d27451fadf32/AndroidManifest.xml:20:5-44
MERGED from [com.android.support:animated-vector-drawable:28.0.0] /Users/admin/.gradle/caches/transforms-2/files-2.1/2e5f8fc2d7675aeb4a9bad3f8f412651/AndroidManifest.xml:20:5-44
MERGED from [com.android.support:animated-vector-drawable:28.0.0] /Users/admin/.gradle/caches/transforms-2/files-2.1/2e5f8fc2d7675aeb4a9bad3f8f412651/AndroidManifest.xml:20:5-44
MERGED from [com.android.support:support-core-ui:28.0.0] /Users/admin/.gradle/caches/transforms-2/files-2.1/3c6b0b221a5a7710bd0510995e751a8a/AndroidManifest.xml:20:5-44
MERGED from [com.android.support:support-core-ui:28.0.0] /Users/admin/.gradle/caches/transforms-2/files-2.1/3c6b0b221a5a7710bd0510995e751a8a/AndroidManifest.xml:20:5-44
MERGED from [com.android.support:support-core-utils:28.0.0] /Users/admin/.gradle/caches/transforms-2/files-2.1/8fb8a91c93b7cdea98fc5518552fc6e8/AndroidManifest.xml:20:5-44
MERGED from [com.android.support:support-core-utils:28.0.0] /Users/admin/.gradle/caches/transforms-2/files-2.1/8fb8a91c93b7cdea98fc5518552fc6e8/AndroidManifest.xml:20:5-44
MERGED from [com.android.support:support-vector-drawable:28.0.0] /Users/admin/.gradle/caches/transforms-2/files-2.1/ac7344732ba4df86d104d71516f511dd/AndroidManifest.xml:20:5-44
MERGED from [com.android.support:support-vector-drawable:28.0.0] /Users/admin/.gradle/caches/transforms-2/files-2.1/ac7344732ba4df86d104d71516f511dd/AndroidManifest.xml:20:5-44
MERGED from [com.android.support:loader:28.0.0] /Users/admin/.gradle/caches/transforms-2/files-2.1/825fc541bdf25a7a9e3b0806cf1e275f/AndroidManifest.xml:20:5-44
MERGED from [com.android.support:loader:28.0.0] /Users/admin/.gradle/caches/transforms-2/files-2.1/825fc541bdf25a7a9e3b0806cf1e275f/AndroidManifest.xml:20:5-44
MERGED from [com.android.support:viewpager:28.0.0] /Users/admin/.gradle/caches/transforms-2/files-2.1/5a0f1a03964381f25fdcc89bd39e37f9/AndroidManifest.xml:20:5-44
MERGED from [com.android.support:viewpager:28.0.0] /Users/admin/.gradle/caches/transforms-2/files-2.1/5a0f1a03964381f25fdcc89bd39e37f9/AndroidManifest.xml:20:5-44
MERGED from [com.android.support:coordinatorlayout:28.0.0] /Users/admin/.gradle/caches/transforms-2/files-2.1/56b353017eb39d0ee9f616040a026cdb/AndroidManifest.xml:20:5-44
MERGED from [com.android.support:coordinatorlayout:28.0.0] /Users/admin/.gradle/caches/transforms-2/files-2.1/56b353017eb39d0ee9f616040a026cdb/AndroidManifest.xml:20:5-44
MERGED from [com.android.support:drawerlayout:28.0.0] /Users/admin/.gradle/caches/transforms-2/files-2.1/23b759191c41d27d2d20aec310093e49/AndroidManifest.xml:20:5-44
MERGED from [com.android.support:drawerlayout:28.0.0] /Users/admin/.gradle/caches/transforms-2/files-2.1/23b759191c41d27d2d20aec310093e49/AndroidManifest.xml:20:5-44
MERGED from [com.android.support:slidingpanelayout:28.0.0] /Users/admin/.gradle/caches/transforms-2/files-2.1/70ad638f54f7f7d7b57b6df5ba9c75a4/AndroidManifest.xml:20:5-44
MERGED from [com.android.support:slidingpanelayout:28.0.0] /Users/admin/.gradle/caches/transforms-2/files-2.1/70ad638f54f7f7d7b57b6df5ba9c75a4/AndroidManifest.xml:20:5-44
MERGED from [com.android.support:customview:28.0.0] /Users/admin/.gradle/caches/transforms-2/files-2.1/e9614c6be690ff1ee9b2585dd0253c2e/AndroidManifest.xml:20:5-44
MERGED from [com.android.support:customview:28.0.0] /Users/admin/.gradle/caches/transforms-2/files-2.1/e9614c6be690ff1ee9b2585dd0253c2e/AndroidManifest.xml:20:5-44
MERGED from [com.android.support:swiperefreshlayout:28.0.0] /Users/admin/.gradle/caches/transforms-2/files-2.1/4925958dc51f82757a0d8d80c6351a97/AndroidManifest.xml:20:5-44
MERGED from [com.android.support:swiperefreshlayout:28.0.0] /Users/admin/.gradle/caches/transforms-2/files-2.1/4925958dc51f82757a0d8d80c6351a97/AndroidManifest.xml:20:5-44
MERGED from [com.android.support:asynclayoutinflater:28.0.0] /Users/admin/.gradle/caches/transforms-2/files-2.1/35f9b06a74a599d30169dc9f3ff1afcd/AndroidManifest.xml:20:5-44
MERGED from [com.android.support:asynclayoutinflater:28.0.0] /Users/admin/.gradle/caches/transforms-2/files-2.1/35f9b06a74a599d30169dc9f3ff1afcd/AndroidManifest.xml:20:5-44
MERGED from [com.android.support:support-compat:28.0.0] /Users/admin/.gradle/caches/transforms-2/files-2.1/2b85ca4c57e6c4cbd2c905ebb8965c52/AndroidManifest.xml:20:5-44
MERGED from [com.android.support:support-compat:28.0.0] /Users/admin/.gradle/caches/transforms-2/files-2.1/2b85ca4c57e6c4cbd2c905ebb8965c52/AndroidManifest.xml:20:5-44
MERGED from [com.google.android.exoplayer:extension-okhttp:2.9.3] /Users/admin/.gradle/caches/transforms-2/files-2.1/ce1472a5faebea295df5b975a4113b98/AndroidManifest.xml:20:5-22:41
MERGED from [com.google.android.exoplayer:extension-okhttp:2.9.3] /Users/admin/.gradle/caches/transforms-2/files-2.1/ce1472a5faebea295df5b975a4113b98/AndroidManifest.xml:20:5-22:41
MERGED from [com.android.support:exifinterface:28.0.0] /Users/admin/.gradle/caches/transforms-2/files-2.1/e7a9cf42e63d3c74da752108659df792/AndroidManifest.xml:20:5-44
MERGED from [com.android.support:exifinterface:28.0.0] /Users/admin/.gradle/caches/transforms-2/files-2.1/e7a9cf42e63d3c74da752108659df792/AndroidManifest.xml:20:5-44
MERGED from [com.android.support:versionedparcelable:28.0.0] /Users/admin/.gradle/caches/transforms-2/files-2.1/3f9e0a5435e3ff44fbca618b2073cf30/AndroidManifest.xml:20:5-44
MERGED from [com.android.support:versionedparcelable:28.0.0] /Users/admin/.gradle/caches/transforms-2/files-2.1/3f9e0a5435e3ff44fbca618b2073cf30/AndroidManifest.xml:20:5-44
MERGED from [com.android.support:cursoradapter:28.0.0] /Users/admin/.gradle/caches/transforms-2/files-2.1/d21a2bbc033f1d40bd506e76b78ed51e/AndroidManifest.xml:20:5-44
MERGED from [com.android.support:cursoradapter:28.0.0] /Users/admin/.gradle/caches/transforms-2/files-2.1/d21a2bbc033f1d40bd506e76b78ed51e/AndroidManifest.xml:20:5-44
MERGED from [com.google.android.exoplayer:exoplayer-dash:2.9.3] /Users/admin/.gradle/caches/transforms-2/files-2.1/cd29ceb61ecf268cf4e41bf14a076fc4/AndroidManifest.xml:20:5-22:41
MERGED from [com.google.android.exoplayer:exoplayer-dash:2.9.3] /Users/admin/.gradle/caches/transforms-2/files-2.1/cd29ceb61ecf268cf4e41bf14a076fc4/AndroidManifest.xml:20:5-22:41
MERGED from [com.google.android.exoplayer:exoplayer-hls:2.9.3] /Users/admin/.gradle/caches/transforms-2/files-2.1/415cf4856aab0ca5feb4fbec77fa8776/AndroidManifest.xml:20:5-22:41
MERGED from [com.google.android.exoplayer:exoplayer-hls:2.9.3] /Users/admin/.gradle/caches/transforms-2/files-2.1/415cf4856aab0ca5feb4fbec77fa8776/AndroidManifest.xml:20:5-22:41
MERGED from [com.google.android.exoplayer:exoplayer-smoothstreaming:2.9.3] /Users/admin/.gradle/caches/transforms-2/files-2.1/88a485660aeaccff3c2623d4d1e87251/AndroidManifest.xml:20:5-22:41
MERGED from [com.google.android.exoplayer:exoplayer-smoothstreaming:2.9.3] /Users/admin/.gradle/caches/transforms-2/files-2.1/88a485660aeaccff3c2623d4d1e87251/AndroidManifest.xml:20:5-22:41
MERGED from [com.google.android.exoplayer:exoplayer-ui:2.9.3] /Users/admin/.gradle/caches/transforms-2/files-2.1/6f271368f82795ef7a4cb92d8858e227/AndroidManifest.xml:20:5-22:41
MERGED from [com.google.android.exoplayer:exoplayer-ui:2.9.3] /Users/admin/.gradle/caches/transforms-2/files-2.1/6f271368f82795ef7a4cb92d8858e227/AndroidManifest.xml:20:5-22:41
MERGED from [com.google.android.exoplayer:exoplayer-core:2.9.3] /Users/admin/.gradle/caches/transforms-2/files-2.1/09d9e5f4374a801387997090853f11af/AndroidManifest.xml:20:5-22:41
MERGED from [com.google.android.exoplayer:exoplayer-core:2.9.3] /Users/admin/.gradle/caches/transforms-2/files-2.1/09d9e5f4374a801387997090853f11af/AndroidManifest.xml:20:5-22:41
MERGED from [android.arch.lifecycle:runtime:1.1.1] /Users/admin/.gradle/caches/transforms-2/files-2.1/9142e926d9e35b1e1466a0efea9ec384/AndroidManifest.xml:20:5-44
MERGED from [android.arch.lifecycle:runtime:1.1.1] /Users/admin/.gradle/caches/transforms-2/files-2.1/9142e926d9e35b1e1466a0efea9ec384/AndroidManifest.xml:20:5-44
MERGED from [com.android.support:documentfile:28.0.0] /Users/admin/.gradle/caches/transforms-2/files-2.1/4cfed2c527663519ddb142dac96cd207/AndroidManifest.xml:20:5-44
MERGED from [com.android.support:documentfile:28.0.0] /Users/admin/.gradle/caches/transforms-2/files-2.1/4cfed2c527663519ddb142dac96cd207/AndroidManifest.xml:20:5-44
MERGED from [com.android.support:localbroadcastmanager:28.0.0] /Users/admin/.gradle/caches/transforms-2/files-2.1/5be4c211571bcebb7c73dd1eb718e74a/AndroidManifest.xml:20:5-44
MERGED from [com.android.support:localbroadcastmanager:28.0.0] /Users/admin/.gradle/caches/transforms-2/files-2.1/5be4c211571bcebb7c73dd1eb718e74a/AndroidManifest.xml:20:5-44
MERGED from [com.android.support:print:28.0.0] /Users/admin/.gradle/caches/transforms-2/files-2.1/b6a17f789a526b785873368dbbaad255/AndroidManifest.xml:20:5-44
MERGED from [com.android.support:print:28.0.0] /Users/admin/.gradle/caches/transforms-2/files-2.1/b6a17f789a526b785873368dbbaad255/AndroidManifest.xml:20:5-44
MERGED from [android.arch.lifecycle:viewmodel:1.1.1] /Users/admin/.gradle/caches/transforms-2/files-2.1/d162780810cc764d5c3d92f5d8f9b59e/AndroidManifest.xml:20:5-44
MERGED from [android.arch.lifecycle:viewmodel:1.1.1] /Users/admin/.gradle/caches/transforms-2/files-2.1/d162780810cc764d5c3d92f5d8f9b59e/AndroidManifest.xml:20:5-44
MERGED from [android.arch.lifecycle:livedata:1.1.1] /Users/admin/.gradle/caches/transforms-2/files-2.1/52e89f95d52bb559b112ff02589a7cf9/AndroidManifest.xml:20:5-44
MERGED from [android.arch.lifecycle:livedata:1.1.1] /Users/admin/.gradle/caches/transforms-2/files-2.1/52e89f95d52bb559b112ff02589a7cf9/AndroidManifest.xml:20:5-44
MERGED from [android.arch.lifecycle:livedata-core:1.1.1] /Users/admin/.gradle/caches/transforms-2/files-2.1/a756533f71998c8eae9a709e8179d423/AndroidManifest.xml:20:5-44
MERGED from [android.arch.lifecycle:livedata-core:1.1.1] /Users/admin/.gradle/caches/transforms-2/files-2.1/a756533f71998c8eae9a709e8179d423/AndroidManifest.xml:20:5-44
MERGED from [android.arch.core:runtime:1.1.1] /Users/admin/.gradle/caches/transforms-2/files-2.1/571d113582b4bf3bb8e375c0751645b4/AndroidManifest.xml:20:5-44
MERGED from [android.arch.core:runtime:1.1.1] /Users/admin/.gradle/caches/transforms-2/files-2.1/571d113582b4bf3bb8e375c0751645b4/AndroidManifest.xml:20:5-44
MERGED from [com.android.support:interpolator:28.0.0] /Users/admin/.gradle/caches/transforms-2/files-2.1/133974195d46d00b729e5dba07697947/AndroidManifest.xml:20:5-44
MERGED from [com.android.support:interpolator:28.0.0] /Users/admin/.gradle/caches/transforms-2/files-2.1/133974195d46d00b729e5dba07697947/AndroidManifest.xml:20:5-44
MERGED from [com.facebook.fresco:imagepipeline-okhttp3:1.10.0] /Users/admin/.gradle/caches/transforms-2/files-2.1/1f8420f4fecc965f6b09eff4a817b605/AndroidManifest.xml:5:5-7:41
MERGED from [com.facebook.fresco:imagepipeline-okhttp3:1.10.0] /Users/admin/.gradle/caches/transforms-2/files-2.1/1f8420f4fecc965f6b09eff4a817b605/AndroidManifest.xml:5:5-7:41
MERGED from [com.facebook.fresco:fresco:1.10.0] /Users/admin/.gradle/caches/transforms-2/files-2.1/c501b34b397b0d37a39f2048ce00db95/AndroidManifest.xml:5:5-7:41
MERGED from [com.facebook.fresco:fresco:1.10.0] /Users/admin/.gradle/caches/transforms-2/files-2.1/c501b34b397b0d37a39f2048ce00db95/AndroidManifest.xml:5:5-7:41
MERGED from [com.facebook.fresco:drawee:1.10.0] /Users/admin/.gradle/caches/transforms-2/files-2.1/5c37a7adb6775202ed1692d7d3b26084/AndroidManifest.xml:5:5-7:41
MERGED from [com.facebook.fresco:drawee:1.10.0] /Users/admin/.gradle/caches/transforms-2/files-2.1/5c37a7adb6775202ed1692d7d3b26084/AndroidManifest.xml:5:5-7:41
MERGED from [com.facebook.fresco:imagepipeline:1.10.0] /Users/admin/.gradle/caches/transforms-2/files-2.1/2c7835722348d275dd976c2dcebdb9a1/AndroidManifest.xml:5:5-7:41
MERGED from [com.facebook.fresco:imagepipeline:1.10.0] /Users/admin/.gradle/caches/transforms-2/files-2.1/2c7835722348d275dd976c2dcebdb9a1/AndroidManifest.xml:5:5-7:41
MERGED from [com.facebook.fresco:imagepipeline-base:1.10.0] /Users/admin/.gradle/caches/transforms-2/files-2.1/0bd4a023b35bc796c43250eaa577f11e/AndroidManifest.xml:5:5-7:41
MERGED from [com.facebook.fresco:imagepipeline-base:1.10.0] /Users/admin/.gradle/caches/transforms-2/files-2.1/0bd4a023b35bc796c43250eaa577f11e/AndroidManifest.xml:5:5-7:41
MERGED from [com.facebook.soloader:soloader:0.6.0] /Users/admin/.gradle/caches/transforms-2/files-2.1/7f5fc5cf69bb1b47451ebcc33b23f62e/AndroidManifest.xml:7:5-9:41
MERGED from [com.facebook.soloader:soloader:0.6.0] /Users/admin/.gradle/caches/transforms-2/files-2.1/7f5fc5cf69bb1b47451ebcc33b23f62e/AndroidManifest.xml:7:5-9:41
MERGED from [com.facebook.fresco:fbcore:1.10.0] /Users/admin/.gradle/caches/transforms-2/files-2.1/15bfa767f5a1a6c9e7c412033fd39eb2/AndroidManifest.xml:5:5-7:41
MERGED from [com.facebook.fresco:fbcore:1.10.0] /Users/admin/.gradle/caches/transforms-2/files-2.1/15bfa767f5a1a6c9e7c412033fd39eb2/AndroidManifest.xml:5:5-7:41
INJECTED from /Users/admin/Desktop/gradhire/android/app/src/debug/AndroidManifest.xml
INJECTED from /Users/admin/Desktop/gradhire/android/app/src/debug/AndroidManifest.xml
	android:targetSdkVersion
		INJECTED from /Users/admin/Desktop/gradhire/android/app/src/main/AndroidManifest.xml
		INJECTED from /Users/admin/Desktop/gradhire/android/app/src/debug/AndroidManifest.xml
	android:minSdkVersion
		INJECTED from /Users/admin/Desktop/gradhire/android/app/src/main/AndroidManifest.xml
		INJECTED from /Users/admin/Desktop/gradhire/android/app/src/debug/AndroidManifest.xml
meta-data#android.support.FILE_PROVIDER_PATHS
MERGED from [:react-native-file-viewer] /Users/admin/Desktop/gradhire/node_modules/react-native-file-viewer/android/build/intermediates/library_manifest/debug/AndroidManifest.xml:17:13-19:70
MERGED from [:react-native-file-viewer] /Users/admin/Desktop/gradhire/node_modules/react-native-file-viewer/android/build/intermediates/library_manifest/debug/AndroidManifest.xml:17:13-19:70
uses-permission#android.permission.ACCESS_COARSE_LOCATION
ADDED from [:react-native-maps] /Users/admin/Desktop/gradhire/node_modules/react-native-maps/lib/android/build/intermediates/library_manifest/debug/AndroidManifest.xml:10:5-81
	android:name
		ADDED from [:react-native-maps] /Users/admin/Desktop/gradhire/node_modules/react-native-maps/lib/android/build/intermediates/library_manifest/debug/AndroidManifest.xml:10:22-78
provider#com.imagepicker.FileProvider
ADDED from [:react-native-image-picker] /Users/admin/Desktop/gradhire/node_modules/react-native-image-picker/android/build/intermediates/library_manifest/debug/AndroidManifest.xml:12:9-20:20
	android:grantUriPermissions
		ADDED from [:react-native-image-picker] /Users/admin/Desktop/gradhire/node_modules/react-native-image-picker/android/build/intermediates/library_manifest/debug/AndroidManifest.xml:16:13-47
	android:authorities
		ADDED from [:react-native-image-picker] /Users/admin/Desktop/gradhire/node_modules/react-native-image-picker/android/build/intermediates/library_manifest/debug/AndroidManifest.xml:14:13-60
	android:exported
		ADDED from [:react-native-image-picker] /Users/admin/Desktop/gradhire/node_modules/react-native-image-picker/android/build/intermediates/library_manifest/debug/AndroidManifest.xml:15:13-37
	android:name
		ADDED from [:react-native-image-picker] /Users/admin/Desktop/gradhire/node_modules/react-native-image-picker/android/build/intermediates/library_manifest/debug/AndroidManifest.xml:13:13-56
provider#com.reactnativecommunity.webview.RNCWebViewFileProvider
ADDED from [:react-native-webview] /Users/admin/Desktop/gradhire/node_modules/react-native-webview/android/build/intermediates/library_manifest/debug/AndroidManifest.xml:12:9-20:20
	android:grantUriPermissions
		ADDED from [:react-native-webview] /Users/admin/Desktop/gradhire/node_modules/react-native-webview/android/build/intermediates/library_manifest/debug/AndroidManifest.xml:16:13-47
	android:authorities
		ADDED from [:react-native-webview] /Users/admin/Desktop/gradhire/node_modules/react-native-webview/android/build/intermediates/library_manifest/debug/AndroidManifest.xml:14:13-64
	android:exported
		ADDED from [:react-native-webview] /Users/admin/Desktop/gradhire/node_modules/react-native-webview/android/build/intermediates/library_manifest/debug/AndroidManifest.xml:15:13-37
	android:name
		ADDED from [:react-native-webview] /Users/admin/Desktop/gradhire/node_modules/react-native-webview/android/build/intermediates/library_manifest/debug/AndroidManifest.xml:13:13-83
provider#android.support.v4.content.FileProvider
ADDED from [:react-native-image-crop-picker] /Users/admin/Desktop/gradhire/node_modules/react-native-image-crop-picker/android/build/intermediates/library_manifest/debug/AndroidManifest.xml:13:9-21:20
	android:grantUriPermissions
		ADDED from [:react-native-image-crop-picker] /Users/admin/Desktop/gradhire/node_modules/react-native-image-crop-picker/android/build/intermediates/library_manifest/debug/AndroidManifest.xml:17:13-47
	android:authorities
		ADDED from [:react-native-image-crop-picker] /Users/admin/Desktop/gradhire/node_modules/react-native-image-crop-picker/android/build/intermediates/library_manifest/debug/AndroidManifest.xml:15:13-60
	android:exported
		ADDED from [:react-native-image-crop-picker] /Users/admin/Desktop/gradhire/node_modules/react-native-image-crop-picker/android/build/intermediates/library_manifest/debug/AndroidManifest.xml:16:13-37
	android:name
		ADDED from [:react-native-image-crop-picker] /Users/admin/Desktop/gradhire/node_modules/react-native-image-crop-picker/android/build/intermediates/library_manifest/debug/AndroidManifest.xml:14:13-67
activity#com.yalantis.ucrop.UCropActivity
ADDED from [:react-native-image-crop-picker] /Users/admin/Desktop/gradhire/node_modules/react-native-image-crop-picker/android/build/intermediates/library_manifest/debug/AndroidManifest.xml:23:9-25:72
	android:theme
		ADDED from [:react-native-image-crop-picker] /Users/admin/Desktop/gradhire/node_modules/react-native-image-crop-picker/android/build/intermediates/library_manifest/debug/AndroidManifest.xml:25:13-69
	android:name
		ADDED from [:react-native-image-crop-picker] /Users/admin/Desktop/gradhire/node_modules/react-native-image-crop-picker/android/build/intermediates/library_manifest/debug/AndroidManifest.xml:24:13-60
uses-feature#android.hardware.camera.autofocus
ADDED from [:react-native-camera] /Users/admin/Desktop/gradhire/node_modules/react-native-camera/android/build/intermediates/library_manifest/generalDebug/AndroidManifest.xml:14:5-16:36
	android:required
		ADDED from [:react-native-camera] /Users/admin/Desktop/gradhire/node_modules/react-native-camera/android/build/intermediates/library_manifest/generalDebug/AndroidManifest.xml:16:9-33
	android:name
		ADDED from [:react-native-camera] /Users/admin/Desktop/gradhire/node_modules/react-native-camera/android/build/intermediates/library_manifest/generalDebug/AndroidManifest.xml:15:9-57
uses-permission#android.permission.ACCESS_NETWORK_STATE
ADDED from [com.google.android.gms:play-services-maps:16.1.0] /Users/admin/.gradle/caches/transforms-2/files-2.1/7030737786a1a2c9dc9cd48dcaa78e39/AndroidManifest.xml:23:5-79
MERGED from [com.google.android.exoplayer:exoplayer-core:2.9.3] /Users/admin/.gradle/caches/transforms-2/files-2.1/09d9e5f4374a801387997090853f11af/AndroidManifest.xml:24:5-79
MERGED from [com.google.android.exoplayer:exoplayer-core:2.9.3] /Users/admin/.gradle/caches/transforms-2/files-2.1/09d9e5f4374a801387997090853f11af/AndroidManifest.xml:24:5-79
	android:name
		ADDED from [com.google.android.gms:play-services-maps:16.1.0] /Users/admin/.gradle/caches/transforms-2/files-2.1/7030737786a1a2c9dc9cd48dcaa78e39/AndroidManifest.xml:23:22-76
uses-feature#0x00020000
ADDED from [com.google.android.gms:play-services-maps:16.1.0] /Users/admin/.gradle/caches/transforms-2/files-2.1/7030737786a1a2c9dc9cd48dcaa78e39/AndroidManifest.xml:26:5-28:35
	android:glEsVersion
		ADDED from [com.google.android.gms:play-services-maps:16.1.0] /Users/admin/.gradle/caches/transforms-2/files-2.1/7030737786a1a2c9dc9cd48dcaa78e39/AndroidManifest.xml:27:9-41
	android:required
		ADDED from [com.google.android.gms:play-services-maps:16.1.0] /Users/admin/.gradle/caches/transforms-2/files-2.1/7030737786a1a2c9dc9cd48dcaa78e39/AndroidManifest.xml:28:9-32
uses-library#org.apache.http.legacy
ADDED from [com.google.android.gms:play-services-maps:16.1.0] /Users/admin/.gradle/caches/transforms-2/files-2.1/7030737786a1a2c9dc9cd48dcaa78e39/AndroidManifest.xml:33:9-35:40
	android:required
		ADDED from [com.google.android.gms:play-services-maps:16.1.0] /Users/admin/.gradle/caches/transforms-2/files-2.1/7030737786a1a2c9dc9cd48dcaa78e39/AndroidManifest.xml:35:13-37
	android:name
		ADDED from [com.google.android.gms:play-services-maps:16.1.0] /Users/admin/.gradle/caches/transforms-2/files-2.1/7030737786a1a2c9dc9cd48dcaa78e39/AndroidManifest.xml:34:13-50
activity#com.google.android.gms.common.api.GoogleApiActivity
ADDED from [com.google.android.gms:play-services-base:16.1.0] /Users/admin/.gradle/caches/transforms-2/files-2.1/df7b55b6c75807a09b14cd84eda5f64c/AndroidManifest.xml:23:9-26:75
	android:exported
		ADDED from [com.google.android.gms:play-services-base:16.1.0] /Users/admin/.gradle/caches/transforms-2/files-2.1/df7b55b6c75807a09b14cd84eda5f64c/AndroidManifest.xml:25:13-37
	android:theme
		ADDED from [com.google.android.gms:play-services-base:16.1.0] /Users/admin/.gradle/caches/transforms-2/files-2.1/df7b55b6c75807a09b14cd84eda5f64c/AndroidManifest.xml:26:13-72
	android:name
		ADDED from [com.google.android.gms:play-services-base:16.1.0] /Users/admin/.gradle/caches/transforms-2/files-2.1/df7b55b6c75807a09b14cd84eda5f64c/AndroidManifest.xml:24:13-79
meta-data#com.google.android.gms.version
ADDED from [com.google.maps.android:android-maps-utils:0.5] /Users/admin/.gradle/caches/transforms-2/files-2.1/f1457144cb686673b800b2bf6c2f0236/AndroidManifest.xml:8:9-10:69
MERGED from [com.google.android.gms:play-services-basement:16.2.0] /Users/admin/.gradle/caches/transforms-2/files-2.1/d2204a78f63f3a9ad95938538e8246f0/AndroidManifest.xml:23:9-25:69
MERGED from [com.google.android.gms:play-services-basement:16.2.0] /Users/admin/.gradle/caches/transforms-2/files-2.1/d2204a78f63f3a9ad95938538e8246f0/AndroidManifest.xml:23:9-25:69
	android:value
		ADDED from [com.google.maps.android:android-maps-utils:0.5] /Users/admin/.gradle/caches/transforms-2/files-2.1/f1457144cb686673b800b2bf6c2f0236/AndroidManifest.xml:10:13-66
	android:name
		ADDED from [com.google.maps.android:android-maps-utils:0.5] /Users/admin/.gradle/caches/transforms-2/files-2.1/f1457144cb686673b800b2bf6c2f0236/AndroidManifest.xml:9:13-58
